<svg xmlns="http://www.w3.org/2000/svg" width="104.91" height="71.539" viewBox="0 0 104.91 71.539">
  <g id="dimension-bike" transform="translate(-48 -1506.961)">
    <rect id="Rectangle_2281" data-name="Rectangle 2281" width="3" height="14.033" transform="translate(62.033 1575.5) rotate(90)" fill="#f50"/>
    <rect id="Rectangle_2283" data-name="Rectangle 2283" width="3" height="14" transform="translate(68.91 1520.961) rotate(180)" fill="#f50"/>
    <rect id="Rectangle_2284" data-name="Rectangle 2284" width="66" height="3" transform="translate(143.91 1515) rotate(180)" fill="#f50"/>
    <rect id="Rectangle_2285" data-name="Rectangle 2285" width="31" height="3" transform="translate(56.5 1535.59) rotate(90)" fill="#f50"/>
    <rect id="Rectangle_2279" data-name="Rectangle 2279" width="3" height="14.033" transform="translate(62.033 1524.699) rotate(90)" fill="#f50"/>
    <rect id="Rectangle_2282" data-name="Rectangle 2282" width="3" height="14" transform="translate(152.91 1520.961) rotate(180)" fill="#f50"/>
    <path id="Polygon_7" data-name="Polygon 7" d="M4,0,8,7H0Z" transform="translate(71.5 1517.5) rotate(-90)" fill="#f50"/>
    <path id="Polygon_10" data-name="Polygon 10" d="M4,0,8,7H0Z" transform="translate(59 1573) rotate(180)" fill="#f50"/>
    <path id="Polygon_9" data-name="Polygon 9" d="M4,0,8,7H0Z" transform="translate(147.5 1509.5) rotate(90)" fill="#f50"/>
    <path id="Polygon_11" data-name="Polygon 11" d="M4,0,8,7H0Z" transform="translate(51 1529)" fill="#f50"/>
    <g id="motorbike" transform="translate(69.211 1428.451)">
      <g id="Group_2353" data-name="Group 2353" transform="translate(0 100.549)">
        <path id="Path_2781" data-name="Path 2781" d="M67.3,122.757a13.425,13.425,0,0,0-1.921.14l-.821-3.064a16.623,16.623,0,0,1,6.594.223,1.576,1.576,0,0,0,1.621-.581c3.661-4.825,3.871-7.7.832-11.4-3.922-4.774-7.53-7.227-11.032-7.5-2.623-.2-5.149.816-7.73,3.117a1.576,1.576,0,0,0,.023,2.373l2.574,2.206c-.105.457-.2.888-.279,1.288a15.286,15.286,0,0,1-.658,2.506l-1.1-.641c-5.289-3.1-9.466-5.544-13.719-4.367-2.825.782-5.3,3.1-7.749,7.277l-11.954-3.421-.738-2.283c-.76-2.35-2.382-3.635-5.1-4.041L2.623,102.3a1.576,1.576,0,0,0-1.715,2.167c3.367,7.982,4.643,10.091,9.45,12.479l11.6,5.764c2.994,1.487,4.066,2.624,4.989,5.29l2.277,6.58H26.7a13.4,13.4,0,1,0,0,3.152h3.617l1.542,4.456a1.576,1.576,0,0,0,1.489,1.061H50.032a1.576,1.576,0,0,0,1.5-2.055,16.564,16.564,0,0,1,9.982-20.542l.821,3.065a13.389,13.389,0,1,0,4.965-.958ZM13.4,146.4a10.245,10.245,0,1,1,10.124-11.821h-3.21a7.093,7.093,0,1,0,0,3.152h3.21A10.261,10.261,0,0,1,13.4,146.4Zm0-8.669h3.611a3.94,3.94,0,1,1,0-3.152H13.4a1.576,1.576,0,0,0,0,3.152ZM42.53,110.095c2.968-.821,6.638,1.328,11.285,4.049l.375.22c-.266.13-.56.258-.888.386l-7.575,2.957-8.649-2.475C38.912,112.287,40.7,110.6,42.53,110.095Zm8.4,15.105H45.786a1.576,1.576,0,1,0,0,3.152h3.426a19.538,19.538,0,0,0-1.057,3.152H42.24a1.576,1.576,0,0,0,0,3.152h5.416q-.056.741-.057,1.5a19.76,19.76,0,0,0,.4,3.94H34.469l-4.542-13.127c-1.342-3.879-3.343-5.482-6.565-7.083l-11.6-5.764c-3.256-1.618-4.406-2.83-6.805-8.23L15.633,107.7l.033.005c1.739.257,2.25.864,2.583,1.895l1,3.083a1.576,1.576,0,0,0,1.066,1.03l25.061,7.172a1.576,1.576,0,0,0,1.007-.047l8.07-3.151c4.606-1.8,5.159-4.431,5.8-7.48.14-.666.284-1.355.48-2.1a1.576,1.576,0,0,0-.5-1.6l-1.853-1.588a6.129,6.129,0,0,1,3.954-1.2c2.564.2,5.539,2.338,8.84,6.357a4.39,4.39,0,0,1,1.4,2.809L70.424,112a1.576,1.576,0,1,0-1.2,2.915l2.244.923c-.181.293-.385.6-.619.933A19.708,19.708,0,0,0,50.934,125.2ZM67.3,146.4a10.243,10.243,0,0,1-4.142-19.612l.83,3.1a7.089,7.089,0,1,0,3.312-.823c-.09,0-.178,0-.267.007l-.83-3.1A10.245,10.245,0,1,1,67.3,146.4Zm-1.522-9.837a1.576,1.576,0,0,0,3.045-.816l-.935-3.489a3.945,3.945,0,1,1-3.044.819Z" transform="translate(0 -100.549)" fill="#f50"/>
        <path id="Path_2782" data-name="Path 2782" d="M237.068,256.95h0a1.576,1.576,0,1,0,1.577,1.576A1.576,1.576,0,0,0,237.067,256.95Z" transform="translate(-198.374 -232.299)" fill="#f50"/>
      </g>
    </g>
  </g>
</svg>
