<svg xmlns="http://www.w3.org/2000/svg" xmlns:xlink="http://www.w3.org/1999/xlink" width="112" height="98" viewBox="0 0 112 98">
  <defs>
    <filter id="Rectangle_1753" x="0" y="0" width="112" height="98" filterUnits="userSpaceOnUse">
      <feOffset dy="3" input="SourceAlpha"/>
      <feGaussianBlur stdDeviation="3" result="blur"/>
      <feFlood flood-opacity="0.161"/>
      <feComposite operator="in" in2="blur"/>
      <feComposite in="SourceGraphic"/>
    </filter>
  </defs>
  <g id="Component_38_1" data-name="Component 38 – 1" transform="translate(9 6)">
    <g transform="matrix(1, 0, 0, 1, -9, -6)" filter="url(#Rectangle_1753)">
      <rect id="Rectangle_1753-2" data-name="Rectangle 1753" width="94" height="80" rx="8" transform="translate(9 6)" fill="#fff"/>
    </g>
    <g id="Group_1713" data-name="Group 1713" transform="translate(22.961 22.301)">
      <g id="Path_2411" data-name="Path 2411" fill="#f50">
        <path d="M 43.09040069580078 31.44640350341797 L 5.943502426147461 31.44640350341797 C 2.941942453384399 31.44640350341797 0.5000025033950806 29.00445175170898 0.5000025033950806 26.00289344787598 L 0.5000025033950806 5.943522930145264 C 0.5000025033950806 2.941952705383301 2.941942453384399 0.5000026822090149 5.943502426147461 0.5000026822090149 L 43.09040069580078 0.5000026822090149 C 46.09196090698242 0.5000026822090149 48.53390121459961 2.941952705383301 48.53390121459961 5.943522930145264 L 48.53390121459961 26.00289344787598 C 48.53390121459961 29.00445175170898 46.09196090698242 31.44640350341797 43.09040069580078 31.44640350341797 Z" stroke="none"/>
        <path d="M 5.943504333496094 1.000001907348633 C 3.217643737792969 1.000001907348633 1.000003814697266 3.217653274536133 1.000003814697266 5.943511962890625 L 1.000003814697266 26.00289154052734 C 1.000003814697266 28.72875213623047 3.217643737792969 30.94640350341797 5.943504333496094 30.94640350341797 L 43.09040069580078 30.94640350341797 C 45.81626129150391 30.94640350341797 48.03390121459961 28.72875213623047 48.03390121459961 26.00289154052734 L 48.03390121459961 5.943511962890625 C 48.03390121459961 3.217653274536133 45.81626129150391 1.000001907348633 43.09040069580078 1.000001907348633 L 5.943504333496094 1.000001907348633 M 5.943504333496094 1.9073486328125e-06 L 43.09040069580078 1.9073486328125e-06 C 46.3729133605957 1.9073486328125e-06 49.03390121459961 2.661003112792969 49.03390121459961 5.943511962890625 L 49.03390121459961 26.00289154052734 C 49.03390121459961 29.28540229797363 46.3729133605957 31.94640350341797 43.09040069580078 31.94640350341797 L 5.943504333496094 31.94640350341797 C 2.660991668701172 31.94640350341797 3.814697265625e-06 29.28540229797363 3.814697265625e-06 26.00289154052734 L 3.814697265625e-06 5.943511962890625 C 3.814697265625e-06 2.661003112792969 2.660991668701172 1.9073486328125e-06 5.943504333496094 1.9073486328125e-06 Z" stroke="none" fill="#fff"/>
      </g>
      <path id="Path_2412" data-name="Path 2412" d="M6.175.745a1.486,1.486,0,0,1,2.576,0l5.975,10.392a1.486,1.486,0,0,1-1.288,2.227H1.488A1.486,1.486,0,0,1,.2,11.137Z" transform="translate(23.437 40.11) rotate(180)" fill="#f50"/>
      <path id="Path_2414" data-name="Path 2414" d="M1.486,0H28.232a1.486,1.486,0,0,1,0,2.972H1.486A1.486,1.486,0,0,1,1.486,0Z" transform="translate(9.658 9.658)" fill="#fff"/>
      <path id="Path_2413" data-name="Path 2413" d="M1.486,0H28.232a1.486,1.486,0,0,1,0,2.972H1.486A1.486,1.486,0,0,1,1.486,0Z" transform="translate(9.658 17.088)" fill="#fff"/>
    </g>
  </g>
</svg>
