<svg xmlns="http://www.w3.org/2000/svg" xmlns:xlink="http://www.w3.org/1999/xlink" width="107" height="98" viewBox="0 0 107 98">
  <defs>
    <filter id="Rectangle_1752" x="0" y="0" width="107" height="98" filterUnits="userSpaceOnUse">
      <feOffset dy="3" input="SourceAlpha"/>
      <feGaussianBlur stdDeviation="3" result="blur"/>
      <feFlood flood-opacity="0.161"/>
      <feComposite operator="in" in2="blur"/>
      <feComposite in="SourceGraphic"/>
    </filter>
  </defs>
  <g id="Component_40_1" data-name="Component 40 – 1" transform="translate(9 6)">
    <g transform="matrix(1, 0, 0, 1, -9, -6)" filter="url(#Rectangle_1752)">
      <rect id="Rectangle_1752-2" data-name="Rectangle 1752" width="89" height="80" rx="8" transform="translate(9 6)" fill="#fff"/>
    </g>
    <g id="phone" transform="translate(25.224 21.508)">
      <path id="Path_2415" data-name="Path 2415" d="M34.2,138.64a4.558,4.558,0,0,0,4.542-4.564v-6.085a1.521,1.521,0,0,0-1.039-1.443L28.6,123.506a1.521,1.521,0,0,0-1.326.177L23.4,126.264a26.9,26.9,0,0,1-11.021-10.922l2.581-3.871a1.521,1.521,0,0,0,.177-1.326l-3.043-9.106A1.521,1.521,0,0,0,10.649,100H4.564A4.558,4.558,0,0,0,0,104.542c0,8.405,3.822,17.032,10.485,23.667s15.3,10.43,23.714,10.43Z" transform="translate(0 -100)" fill="#f50"/>
    </g>
  </g>
</svg>
