<?xml version="1.0" encoding="utf-8"?>
<!-- Generator: Adobe Illustrator 19.0.0, SVG Export Plug-In . SVG Version: 6.00 Build 0)  -->
<svg version="1.1" id="Layer_1" xmlns="http://www.w3.org/2000/svg" xmlns:xlink="http://www.w3.org/1999/xlink" x="0px" y="0px"
	 viewBox="0 0 250 250" style="enable-background:new 0 0 250 250;" xml:space="preserve">
<style type="text/css">
	.st0{fill:#FFFFFF;}
	.st1{fill:#F15822;}
</style>
<g id="XMLID_593_">
	<circle id="XMLID_127_" class="st0" cx="125" cy="125" r="125"/>
	<g id="XMLID_290_">
		<g id="XMLID_159_">
			<path id="XMLID_160_" d="M108.4,177.3c-1.1-0.6-1.9-1.4-2.6-2.4c-0.6-1-0.9-2.2-0.9-3.5c0-1.3,0.3-2.5,0.9-3.5
				c0.6-1,1.5-1.9,2.6-2.4c1.1-0.6,2.3-0.9,3.7-0.9c1.1,0,2.2,0.2,3.1,0.6c0.9,0.4,1.7,1,2.3,1.7l-2,1.8c-0.9-1-2-1.6-3.3-1.6
				c-0.8,0-1.6,0.2-2.2,0.5c-0.6,0.4-1.1,0.9-1.5,1.5c-0.4,0.6-0.5,1.4-0.5,2.2c0,0.8,0.2,1.6,0.5,2.2c0.4,0.6,0.9,1.1,1.5,1.5
				c0.6,0.4,1.4,0.5,2.2,0.5c1.3,0,2.4-0.5,3.3-1.6l2,1.8c-0.6,0.8-1.4,1.4-2.3,1.8c-0.9,0.4-2,0.6-3.1,0.6
				C110.7,178.2,109.4,177.9,108.4,177.3z"/>
			<path id="XMLID_162_" d="M128,175.1h-6.1l-1.2,2.8h-3.1l5.9-13.2h3l5.9,13.2h-3.2L128,175.1z M127,172.8l-2.1-5.1l-2.1,5.1H127z"
				/>
			<path id="XMLID_165_" d="M142.2,177.9l-2.6-3.7h-0.2h-2.7v3.7h-3.1v-13.2h5.7c1.2,0,2.2,0.2,3.1,0.6c0.9,0.4,1.5,0.9,2,1.7
				c0.5,0.7,0.7,1.6,0.7,2.6c0,1-0.2,1.8-0.7,2.5c-0.5,0.7-1.1,1.3-2,1.6l3,4.3H142.2z M141.4,167.8c-0.5-0.4-1.2-0.6-2.1-0.6h-2.5
				v4.6h2.5c0.9,0,1.6-0.2,2.1-0.6c0.5-0.4,0.7-1,0.7-1.7C142.1,168.8,141.9,168.2,141.4,167.8z"/>
		</g>
		<g id="XMLID_202_">
			<path id="XMLID_205_" class="st1" d="M159.3,121c-4.7,0-8.6,3.6-8.6,8.1c0,4.5,3.8,8.1,8.6,8.1c4.7,0,8.6-3.6,8.6-8.1
				C167.9,124.6,164,121,159.3,121z"/>
			<path id="XMLID_204_" class="st1" d="M81.2,121c-4.7,0-8.6,3.6-8.6,8.1c0,4.5,3.8,8.1,8.6,8.1c4.7,0,8.6-3.6,8.6-8.1
				C89.8,124.6,85.9,121,81.2,121z"/>
			<path id="XMLID_203_" class="st1" d="M185.1,122.1c-0.1-1.6-0.4-4-0.7-5.4c-0.2-1.3-0.6-3.1-0.9-3.9c-0.1-0.3-0.5-1.6-0.8-1.9
				c-0.3-0.3-2.2-0.5-3.3-0.6c-1.5-0.1-4.5-0.4-6.6-0.7l-0.3,0c-2.2-0.3-4.2-0.5-4.5-0.5c-0.3,0-12.5,0.6-12.5,0.8
				c0,0.1-0.2,0.3-0.4,0.4l0.9-3.2c0.4-1.3-0.4-2.7-1.7-3.1c-1.3-0.4-2.7,0.4-3.1,1.7l-1.6,5.3l-2.8,0.2c-1.1,0.1-2.8,0.2-3.9,0.2
				l-5.5,0.2c-0.1,0-0.3,0-0.4,0l-2.6,0.1c0,0,0,0-0.1,0l1.4-4.6c0.4-1.3-0.4-2.7-1.7-3.1c-1.3-0.4-2.7,0.4-3.1,1.7l-1.8,6.2
				l-3.8,0.1c-1.1,0-2.8,0.1-3.9,0.1l-8.3,0c-1.1,0-2.2,0-2.5-0.1c-0.3,0-0.5-0.1-0.5-0.3c0-0.1,0.1-0.4,0.1-0.6
				c0-0.2,0.1-0.5,0.1-0.7c0-0.2-0.2-0.6-0.3-0.8c-0.2-0.2-0.3-0.7-0.3-1c0-0.3-0.4-0.9,2.5-3.3c2.8-2.4,10.1-4.7,7.4-4.2
				c-1.2,0.2-2.2,0.4-2.8,0.5c-2,0.5-5,1.6-6.7,2.5c-1.6,0.9-4.4,2.3-6.1,3.2c-1.7,0.9-3.9,1.8-4.7,2.1c-0.9,0.2-3.3,0.6-5.4,0.9
				l-2.1,0.3c-2.1,0.3-5.6,0.8-7.7,1.2l-2.2,0.4c-2.1,0.4-5.5,1.1-7.6,1.7l-0.4,0.1c-2.1,0.5-4.8,1.3-5.9,1.8
				c-1.1,0.4-2.4,1.2-2.8,1.9c-0.3,0.4-0.7,1.1-1,1.6c-0.3,0.4-0.7,1.3-1,2c-0.3,0.7-0.5,1.8-0.6,2.4c0,0.6-0.1,1.7-0.1,2.5
				c0,0.8,0.1,1.8,0.2,2.3c0.1,0.5,0.3,1.3,0.5,1.8c0.2,0.6,0.9,1.3,1.5,1.5c0.6,0.2,2,0.5,3.2,0.8c0.5,0.1,1.2,0.2,2,0.2
				c-0.4-1.2-0.7-2.4-0.7-3.7c0-6.3,5.3-11.4,11.8-11.4c6.5,0,11.8,5.1,11.8,11.4c0,1.3-0.3,2.6-0.7,3.8l39.3-0.1l1.7,0
				c2,0,4.4,0,6,0l4.3,0c2.1,0,4.1,0,4.3,0c0.1,0,0.1,0,0.2,0c-0.4-1.2-0.7-2.4-0.7-3.7c0-6.3,5.3-11.4,11.8-11.4
				c6.5,0,11.8,5.1,11.8,11.4c0,0.8-0.1,1.6-0.3,2.4c0.1,0,0.1,0,0.2,0c0.1,0,0.1,0,0.2,0c0.4-0.1,2.4-0.3,4.4-0.5
				c2.1-0.2,4.7-0.6,5.7-0.9c1-0.2,2.2-0.7,2.6-1c0.4-0.4,0.9-1.5,1-2.3C185.2,125.8,185.2,123.7,185.1,122.1z"/>
		</g>
	</g>
</g>
</svg>
